\relax 
\@writefile{toc}{\contentsline {subsection}{\numberline {1}Bristol One City}{1}\protected@file@percent }
\@writefile{toc}{\contentsline {subsection}{\numberline {2}Potato Bristol}{1}\protected@file@percent }
\@writefile{toc}{\contentsline {subsection}{\numberline {3}Bristol City Residents}{1}\protected@file@percent }
\@writefile{toc}{\contentsline {subsection}{\numberline {4}Student development team}{1}\protected@file@percent }
\@writefile{toc}{\contentsline {subsection}{\numberline {5}Bristol University}{1}\protected@file@percent }
